{
  "$schema": "https://docs.renovatebot.com/renovate-schema.json",
  "extends": [
    "config:base",
    ":masterIssue",
    "docker:pinDigests",
    "preview:dockerVersions"
  ],
  "postUpdateOptions": [
    "gomodTidy",
    "gomodUpdateImportPaths"
  ],
  "dependencyDashboardApproval": true
}
